{
  "formatVersion": 1,
  "database": {
    "version": 6,
    "identityHash": "f95fb20f9356931104fd25030148e45a",
    "entities": [
      {
        "tableName": "user",
        "createSql": "CREATE TABLE IF NOT EXISTS `${TABLE_NAME}` (`id` INTEGER PRIMARY KEY AUTOINCREMENT NOT NULL, `name` TEXT NOT NULL, `last_use` INTEGER, `last_block_count` INTEGER NOT NULL, `difficulty` TEXT NOT NULL, `play_time` INTEGER NOT NULL, `solved_tasks` INTEGER NOT NULL, `input_configuration` TEXT NOT NULL)",
        "fields": [
          {
            "fieldPath": "id",
            "columnName": "id",
            "affinity": "INTEGER",
            "notNull": true
          },
          {
            "fieldPath": "name",
            "columnName": "name",
            "affinity": "TEXT",
            "notNull": true
          },
          {
            "fieldPath": "lastUse",
            "columnName": "last_use",
            "affinity": "INTEGER",
            "notNull": false
          },
          {
            "fieldPath": "lastBlockCount",
            "columnName": "last_block_count",
            "affinity": "INTEGER",
            "notNull": true
          },
          {
            "fieldPath": "difficulty",
            "columnName": "difficulty",
            "affinity": "TEXT",
            "notNull": true
          },
          {
            "fieldPath": "playTime",
            "columnName": "play_time",
            "affinity": "INTEGER",
            "notNull": true
          },
          {
            "fieldPath": "solvedTasks",
            "columnName": "solved_tasks",
            "affinity": "INTEGER",
            "notNull": true
          },
          {
            "fieldPath": "inputConfiguration",
            "columnName": "input_configuration",
            "affinity": "TEXT",
            "notNull": true
          }
        ],
        "primaryKey": {
          "columnNames": [
            "id"
          ],
          "autoGenerate": true
        },
        "indices": [],
        "foreignKeys": []
      },
      {
        "tableName": "saved_task",
        "createSql": "CREATE TABLE IF NOT EXISTS `${TABLE_NAME}` (`id` INTEGER PRIMARY KEY AUTOINCREMENT NOT NULL, `user_id` INTEGER NOT NULL, `task` TEXT NOT NULL)",
        "fields": [
          {
            "fieldPath": "id",
            "columnName": "id",
            "affinity": "INTEGER",
            "notNull": true
          },
          {
            "fieldPath": "userId",
            "columnName": "user_id",
            "affinity": "INTEGER",
            "notNull": true
          },
          {
            "fieldPath": "task",
            "columnName": "task",
            "affinity": "TEXT",
            "notNull": true
          }
        ],
        "primaryKey": {
          "columnNames": [
            "id"
          ],
          "autoGenerate": true
        },
        "indices": [],
        "foreignKeys": []
      },
      {
        "tableName": "statistic_task_result",
        "createSql": "CREATE TABLE IF NOT EXISTS `${TABLE_NAME}` (`user_id` INTEGER NOT NULL, `task_index` INTEGER NOT NULL, `type` TEXT NOT NULL, `correct` INTEGER NOT NULL, `duration` INTEGER NOT NULL, PRIMARY KEY(`user_id`, `task_index`))",
        "fields": [
          {
            "fieldPath": "userId",
            "columnName": "user_id",
            "affinity": "INTEGER",
            "notNull": true
          },
          {
            "fieldPath": "taskIndex",
            "columnName": "task_index",
            "affinity": "INTEGER",
            "notNull": true
          },
          {
            "fieldPath": "type",
            "columnName": "type",
            "affinity": "TEXT",
            "notNull": true
          },
          {
            "fieldPath": "correct",
            "columnName": "correct",
            "affinity": "INTEGER",
            "notNull": true
          },
          {
            "fieldPath": "duration",
            "columnName": "duration",
            "affinity": "INTEGER",
            "notNull": true
          }
        ],
        "primaryKey": {
          "columnNames": [
            "user_id",
            "task_index"
          ],
          "autoGenerate": false
        },
        "indices": [],
        "foreignKeys": []
      }
    ],
    "views": [],
    "setupQueries": [
      "CREATE TABLE IF NOT EXISTS room_master_table (id INTEGER PRIMARY KEY,identity_hash TEXT)",
      "INSERT OR REPLACE INTO room_master_table (id,identity_hash) VALUES(42, 'f95fb20f9356931104fd25030148e45a')"
    ]
  }
}